\relax 
\@writefile{toc}{\contentsline {section}{\numberline {1}General Information}{1}}
\@writefile{toc}{\contentsline {subsection}{\numberline {1.1}Background Story}{1}}
\@writefile{toc}{\contentsline {subsection}{\numberline {1.2}Outline}{1}}
\@writefile{toc}{\contentsline {subsection}{\numberline {1.3}Roles}{1}}
\@writefile{toc}{\contentsline {subsection}{\numberline {1.4}Business Rules}{1}}
\@writefile{toc}{\contentsline {section}{\numberline {2}Requirements}{3}}
\@writefile{toc}{\contentsline {subsection}{\numberline {2.1}Functional Requirements}{3}}
\@writefile{toc}{\contentsline {subsection}{\numberline {2.2}Non-Functional Requirements}{3}}
\@writefile{toc}{\contentsline {subsubsection}{\numberline {2.2.1}Reliability}{3}}
\@writefile{toc}{\contentsline {subsubsection}{\numberline {2.2.2}Performance}{3}}
\@writefile{toc}{\contentsline {subsubsection}{\numberline {2.2.3}Supportability}{3}}
\@writefile{toc}{\contentsline {section}{\numberline {3}Analysis}{4}}
\@writefile{toc}{\contentsline {subsection}{\numberline {3.1}Use Cases}{4}}
\@writefile{toc}{\contentsline {subsubsection}{\numberline {3.1.1}Use Case 1}{4}}
\@writefile{toc}{\contentsline {subsubsection}{\numberline {3.1.2}Use Case 2}{5}}
\@writefile{toc}{\contentsline {subsubsection}{\numberline {3.1.3}Use Case 3}{6}}
\@writefile{toc}{\contentsline {subsection}{\numberline {3.2}Domain Model}{7}}
\@writefile{toc}{\contentsline {section}{\numberline {4}Design}{8}}
\@writefile{toc}{\contentsline {subsection}{\numberline {4.1}Design Model}{8}}
\@writefile{toc}{\contentsline {subsection}{\numberline {4.2}Operations Contracts}{9}}
\@writefile{toc}{\contentsline {subsection}{\numberline {4.3}Sequence Diagrams}{10}}
\@writefile{toc}{\contentsline {subsubsection}{\numberline {4.3.1}Use Case 1}{10}}
\@writefile{toc}{\contentsline {subsubsection}{\numberline {4.3.2}Use Case 2}{11}}
\@writefile{toc}{\contentsline {subsubsection}{\numberline {4.3.3}Use Case 3}{12}}
\@writefile{toc}{\contentsline {subsection}{\numberline {4.4}Gantt Report}{13}}
\@writefile{toc}{\contentsline {section}{\numberline {5}GRASPS and Design Patterns}{15}}
\@writefile{toc}{\contentsline {subsection}{\numberline {5.1}Design Patterns}{15}}
\@writefile{toc}{\contentsline {subsection}{\numberline {5.2}GRASPS}{15}}
\@writefile{toc}{\contentsline {section}{\numberline {6}Evaluation/Testing}{16}}
\@writefile{toc}{\contentsline {section}{\numberline {7}Conclusion}{16}}
